…
## # A tibble: 4 x 2
##   candidate       least_endorsements
##   <chr>                        <int>
## 1 Donald Trump                    15
## 2 Jeb Bush                        31
## 3 Ted Cruz                        44
## 4 Hillary Clinton                225

#summary 5 candidate referencing songs in 2015 and 2016
joined %>% select(candidate, song, album_release_date) %>% 
  arrange(album_release_date) %>% 
  filter(album_release_date==2015 | album_release_date==2016) 

## # A tibble: 50 x 3
##    candidate    song                    album_release_date
##    <chr>        <fct>                                <int>
##  1 Donald Trump planewalker                           2015
##  2 Donald Trump neighborhood scientists               2015
##  3 Donald Trump up like trump                         2015
##  4 Donald Trump pnt                                   2015
##  5 Donald Trump she wanna fuck                        2015
##  6 Donald Trump dope spot                             2015
##  7 Donald Trump florida state                         2015
##  8 Donald Trump have a nice day                       2015
##  9 Donald Trump flavas back                           2015
## 10 Donald Trump 10 times                              2015
## # ... with 40 more rows
…
